{
    "key": "group_5dcd2e2f56566",
    "title": "Option > Pages",
    "fields": [
        {
            "key": "field_603131669ad0e",
            "label": "Pagina groepen",
            "name": "",
            "type": "tab",
            "instructions": "",
            "required": 0,
            "conditional_logic": 0,
            "wrapper": {
                "width": "",
                "class": "",
                "id": ""
            },
            "placement": "left",
            "endpoint": 0
        },
        {
            "key": "field_603139799416e",
            "label": "Pagina groepen",
            "name": "",
            "type": "message",
            "instructions": "",
            "required": 0,
            "conditional_logic": 0,
            "wrapper": {
                "width": "",
                "class": "",
                "id": ""
            },
            "message": "Pagina worden onderdeel van een 'groep' zodra er een 'parent' toegewezen is. Zo snapt WordPress dat deze pagina's verwant zijn.\r\n\r\nDoor de groepsrelatie is het mogelijk om 'groepen' verwante pagina's elders op de site te tonen. Dit helpt je bezoeker navigeren.",
            "new_lines": "wpautop",
            "esc_html": 0
        },
        {
            "key": "field_5dd67f9a2372e",
            "label": "Globale titel siblings",
            "name": "page_siblings_title",
            "type": "text",
            "instructions": "",
            "required": 0,
            "conditional_logic": 0,
            "wrapper": {
                "width": "33.3333",
                "class": "",
                "id": ""
            },
            "default_value": "Gerelateerd",
            "placeholder": "",
            "prepend": "",
            "append": "",
            "maxlength": ""
        },
        {
            "key": "field_6000271b734f7",
            "label": "Link type",
            "name": "page_links",
            "type": "select",
            "instructions": "",
            "required": 0,
            "conditional_logic": 0,
            "wrapper": {
                "width": "33.3333",
                "class": "",
                "id": ""
            },
            "choices": {
                "button": "Button",
                "button--wired": "Wired button",
                "button--w": "White button",
                "block__link": "Default link"
            },
            "default_value": "link",
            "allow_null": 0,
            "multiple": 0,
            "ui": 0,
            "return_format": "value",
            "ajax": 0,
            "placeholder": ""
        },
        {
            "key": "field_600156bca618c",
            "label": "Globale Link titel",
            "name": "page_links_title",
            "type": "text",
            "instructions": "",
            "required": 0,
            "conditional_logic": 0,
            "wrapper": {
                "width": "33.3333",
                "class": "",
                "id": ""
            },
            "default_value": "Lees meer",
            "placeholder": "",
            "prepend": "",
            "append": "",
            "maxlength": ""
        },
        {
            "key": "field_603136f7f8c99",
            "label": "Landing template",
            "name": "",
            "type": "tab",
            "instructions": "",
            "required": 0,
            "conditional_logic": 0,
            "wrapper": {
                "width": "",
                "class": "",
                "id": ""
            },
            "placement": "left",
            "endpoint": 0
        },
        {
            "key": "field_5dd67c0d8d6e0",
            "label": "Landing page setup",
            "name": "",
            "type": "message",
            "instructions": "",
            "required": 0,
            "conditional_logic": 0,
            "wrapper": {
                "width": "100",
                "class": "",
                "id": ""
            },
            "message": "Toont verwante pagina's (children) in een 'groep' onder een hoofdpagina (parent). \r\n\r\nSpecificeer hier de 'parent' pagina. Subpages worden gesorteerd op \"menu order\".",
            "new_lines": "wpautop",
            "esc_html": 0
        },
        {
            "key": "field_5cda9235f21d8",
            "label": "Select parent",
            "name": "landing_parent_id",
            "type": "post_object",
            "instructions": "Selecteer pagina (hoofd) om child-pages te tonen.",
            "required": 0,
            "conditional_logic": 0,
            "wrapper": {
                "width": "33.3333",
                "class": "",
                "id": ""
            },
            "post_type": [
                "page"
            ],
            "taxonomy": "",
            "allow_null": 0,
            "multiple": 0,
            "return_format": "id",
            "ui": 1
        },
        {
            "key": "field_5dd69c39e073f",
            "label": "Titel",
            "name": "landing_siblings_title",
            "type": "text",
            "instructions": "De titel van de 'landing page' previews",
            "required": 0,
            "conditional_logic": 0,
            "wrapper": {
                "width": "33.3333",
                "class": "",
                "id": ""
            },
            "default_value": "Gerelateerd",
            "placeholder": "",
            "prepend": "",
            "append": "",
            "maxlength": ""
        },
        {
            "key": "field_5dd67cbf8d6e2",
            "label": "Icon \/ Preview",
            "name": "landing_preview_type",
            "type": "true_false",
            "instructions": "Weergave van de preview.",
            "required": 0,
            "conditional_logic": 0,
            "wrapper": {
                "width": "33.3333",
                "class": "",
                "id": ""
            },
            "message": "",
            "default_value": 0,
            "ui": 1,
            "ui_on_text": "Icon",
            "ui_off_text": "Preview"
        },
        {
            "key": "field_6033a4ad2a1c2",
            "label": "Default image",
            "name": "",
            "type": "tab",
            "instructions": "",
            "required": 0,
            "conditional_logic": 0,
            "wrapper": {
                "width": "",
                "class": "",
                "id": ""
            },
            "placement": "top",
            "endpoint": 0
        },
        {
            "key": "field_6033a483dac3f",
            "label": "Default image",
            "name": "default_image",
            "type": "image",
            "instructions": "",
            "required": 0,
            "conditional_logic": 0,
            "wrapper": {
                "width": "",
                "class": "",
                "id": ""
            },
            "return_format": "id",
            "preview_size": "medium",
            "library": "all",
            "min_width": "",
            "min_height": "",
            "min_size": "",
            "max_width": 1920,
            "max_height": 1920,
            "max_size": "",
            "mime_types": "jpg, png"
        }
    ],
    "location": [
        [
            {
                "param": "options_page",
                "operator": "==",
                "value": "acf-options-setup-pages"
            }
        ]
    ],
    "menu_order": 50,
    "position": "normal",
    "style": "default",
    "label_placement": "top",
    "instruction_placement": "label",
    "hide_on_screen": "",
    "active": true,
    "description": "Setup all page types",
    "modified": 1626254942
}